%!PS-Adobe-3.0 EPSF-3.0
%%Creator: cairo 1.17.4 (https://cairographics.org)
%%CreationDate: Thu Jul 29 12:28:44 2021
%%Pages: 1
%%DocumentData: Clean7Bit
%%LanguageLevel: 2
%%BoundingBox: 0 0 983 322
%%EndComments
%%BeginProlog
50 dict begin
/q { gsave } bind def
/Q { grestore } bind def
/cm { 6 array astore concat } bind def
/w { setlinewidth } bind def
/J { setlinecap } bind def
/j { setlinejoin } bind def
/M { setmiterlimit } bind def
/d { setdash } bind def
/m { moveto } bind def
/l { lineto } bind def
/c { curveto } bind def
/h { closepath } bind def
/re { exch dup neg 3 1 roll 5 3 roll moveto 0 rlineto
      0 exch rlineto 0 rlineto closepath } bind def
/S { stroke } bind def
/f { fill } bind def
/f* { eofill } bind def
/n { newpath } bind def
/W { clip } bind def
/W* { eoclip } bind def
/BT { } bind def
/ET { } bind def
/BDC { mark 3 1 roll /BDC pdfmark } bind def
/EMC { mark /EMC pdfmark } bind def
/cairo_store_point { /cairo_point_y exch def /cairo_point_x exch def } def
/Tj { show currentpoint cairo_store_point } bind def
/TJ {
  {
    dup
    type /stringtype eq
    { show } { -0.001 mul 0 cairo_font_matrix dtransform rmoveto } ifelse
  } forall
  currentpoint cairo_store_point
} bind def
/cairo_selectfont { cairo_font_matrix aload pop pop pop 0 0 6 array astore
    cairo_font exch selectfont cairo_point_x cairo_point_y moveto } bind def
/Tf { pop /cairo_font exch def /cairo_font_matrix where
      { pop cairo_selectfont } if } bind def
/Td { matrix translate cairo_font_matrix matrix concatmatrix dup
      /cairo_font_matrix exch def dup 4 get exch 5 get cairo_store_point
      /cairo_font where { pop cairo_selectfont } if } bind def
/Tm { 2 copy 8 2 roll 6 array astore /cairo_font_matrix exch def
      cairo_store_point /cairo_font where { pop cairo_selectfont } if } bind def
/g { setgray } bind def
/rg { setrgbcolor } bind def
/d1 { setcachedevice } bind def
/cairo_data_source {
  CairoDataIndex CairoData length lt
    { CairoData CairoDataIndex get /CairoDataIndex CairoDataIndex 1 add def }
    { () } ifelse
} def
/cairo_flush_ascii85_file { cairo_ascii85_file status { cairo_ascii85_file flushfile } if } def
/cairo_image { image cairo_flush_ascii85_file } def
/cairo_imagemask { imagemask cairo_flush_ascii85_file } def
%%EndProlog
%%BeginSetup
%%EndSetup
%%Page: 1 1
%%BeginPageSetup
%%PageBoundingBox: 0 0 983 322
%%EndPageSetup
q 0 0 983 322 rectclip
1 0 0 -1 0 322 cm q
1 g
0 0 983 321.5 re f
0 g
1 w
0 J
0 j
[] 0.0 d
4 M q 1 0 0 1 0 0 cm
475.5 128.5 55 17 re S Q
q 1 0 0 1 0 0 cm
658 171.5 55 17 re S Q
q 1 0 0 1 0 0 cm
559 181.5 91 17 re S Q
q 1 0 0 1 0 0 cm
51 45.5 107 17 re S Q
q 1 0 0 1 0 0 cm
172 45.5 33 17 re S Q
q 1 0 0 1 0 0 cm
166 66.5 45 17 re S Q
q 1 0 0 1 0 0 cm
177 87.5 23 17 re S Q
q 1 0 0 1 0 0 cm
172 108.5 33 17 re S Q
q 1 0 0 1 0 0 cm
166.5 129.5 44 17 re S Q
q 1 0 0 1 0 0 cm
169 150.5 39 17 re S Q
q 1 0 0 1 0 0 cm
219 144.5 99 17 re S Q
q 1 0 0 1 0 0 cm
243.5 170.5 50 17 re S Q
q 1 0 0 1 0 0 cm
465 160.5 76 17 re S Q
q 1 0 0 1 0 0 cm
326 170.5 121 17 re S Q
q 1 0 0 1 0 0 cm
333 202.5 107 17 re S Q
q 1 0 0 1 0 0 cm
470.5 181.5 65 17 re S Q
q 1 0 0 1 0 0 cm
477 213.5 52 17 re S Q
q 1 0 0 1 0 0 cm
455 234.5 96 17 re S Q
q 1 0 0 1 0 0 cm
660.5 150.5 50 17 re S Q
q 1 0 0 1 0 0 cm
104 302.5 1 1 re S Q
q 1 0 0 1 0 0 cm
188 302.5 1 1 re S Q
q 1 0 0 1 0 0 cm
268 302.5 1 1 re S Q
q 1 0 0 1 0 0 cm
386 302.5 1 1 re S Q
q 1 0 0 1 0 0 cm
502.5 302.5 1 1 re S Q
q 1 0 0 1 0 0 cm
604 302.5 1 1 re S Q
q 1 0 0 1 0 0 cm
685 302.5 1 1 re S Q
q 1 0 0 1 0 0 cm
731.5 302.5 1 1 re S Q
q 1 0 0 1 0 0 cm
761.5 302.5 1 1 re S Q
q 1 0 0 1 0 0 cm
791.5 302.5 1 1 re S Q
q 1 0 0 1 0 0 cm
821.5 302.5 1 1 re S Q
q 1 0 0 1 0 0 cm
853 302.5 1 1 re S Q
q 1 0 0 1 0 0 cm
884.5 302.5 1 1 re S Q
q 1 0 0 1 0 0 cm
914.5 302.5 1 1 re S Q
q 1 0 0 1 0 0 cm
944.5 302.5 1 1 re S Q
q 1 0 0 1 0 0 cm
105.559 303 m 108 303 185.039 303 187.441 303 c S Q
q 1 0 0 1 0 0 cm
30 302.5 1 1 re S Q
q 1 0 0 1 0 0 cm
103.449 303 m 101.82 303 60.98 303 41.57 303 c S Q
41.551 303 m 41.551 306.5 l 31.551 303 l h
41.551 303 m f
q 1 0 0 1 0 0 cm
41.551 303 m 41.551 306.5 l 31.551 303 l h
41.551 303 m S Q
q 1 0 0 1 0 0 cm
189.559 303 m 191.879 303 265.16 303 267.449 303 c S Q
q 1 0 0 1 0 0 cm
269.578 303 m 273.039 303 382.012 303 385.422 303 c S Q
q 1 0 0 1 0 0 cm
387.578 303 m 391 303 498.559 303 501.922 303 c S Q
q 1 0 0 1 0 0 cm
504.07 303 m 507.039 303 600.512 303 603.43 303 c S Q
q 1 0 0 1 0 0 cm
605.559 303 m 607.91 303 682.129 303 684.441 303 c S Q
q 1 0 0 1 0 0 cm
686.629 303 m 689.16 303 728.43 303 730.879 303 c S Q
q 1 0 0 1 0 0 cm
733.078 303 m 734.672 303 759.379 303 760.922 303 c S Q
q 1 0 0 1 0 0 cm
763.078 303 m 764.672 303 789.379 303 790.922 303 c S Q
q 1 0 0 1 0 0 cm
793.078 303 m 794.672 303 819.379 303 820.922 303 c S Q
q 1 0 0 1 0 0 cm
823.078 303 m 824.762 303 850.801 303 852.422 303 c S Q
q 1 0 0 1 0 0 cm
854.578 303 m 856.262 303 882.301 303 883.922 303 c S Q
q 1 0 0 1 0 0 cm
886.078 303 m 887.672 303 912.379 303 913.922 303 c S Q
q 1 0 0 1 0 0 cm
916.078 303 m 917.672 303 942.379 303 943.922 303 c S Q
q 1 0 0 1 0 0 cm
964 302.5 1 1 re S Q
q 1 0 0 1 0 0 cm
946.051 303 m 946.52 303 950.031 303 953.828 303 c S Q
953.949 303 m 953.949 299.5 l 963.949 303 l h
953.949 303 m f
q 1 0 0 1 0 0 cm
953.949 303 m 953.949 299.5 l 963.949 303 l h
953.949 303 m S Q
q 1 0 0 1 0 0 cm
203.719 150.398 m 207.719 147.98 211 146 211 146 c 211 146 219 126 219 
126 c 219 126 447 126 447 126 c 447 126 455 177 455 177 c 455 177 457.578
 177.711 461.531 178.809 c S Q
462.469 175.43 m 471.172 181.469 l 460.602 182.18 l h
462.469 175.43 m f
q 1 0 0 1 0 0 cm
462.469 175.43 m 471.172 181.469 l 460.602 182.18 l h
462.469 175.43 m S Q
q 1 0 0 1 0 0 cm
204.602 150.301 m 211.852 146.121 219 142 219 142 c 219 142 231 139.77 
243.059 137.531 c S Q
242.48 134.078 m 252.949 135.699 l 243.75 140.969 l h
242.48 134.078 m f
q 1 0 0 1 0 0 cm
242.48 134.078 m 252.949 135.699 l 243.75 140.969 l h
242.48 134.078 m S Q
q 1 0 0 1 0 0 cm
318.238 149.648 m 362.121 146.629 425.641 142.25 465.34 139.52 c S Q
465.172 136.031 m 475.391 138.828 l 465.648 143.012 l h
465.172 136.031 m f
q 1 0 0 1 0 0 cm
465.172 136.031 m 475.391 138.828 l 465.648 143.012 l h
465.172 136.031 m S Q
q 1 0 0 1 0 0 cm
318.211 154.211 m 398.781 156.211 551 160 551 160 c 551 160 608.172 168.57
 647.691 174.488 c S Q
648.43 171.059 m 657.809 176 l 647.398 177.98 l h
648.43 171.059 m f
q 1 0 0 1 0 0 cm
648.43 171.059 m 657.809 176 l 647.398 177.98 l h
648.43 171.059 m S Q
q 1 0 0 1 0 0 cm
293.789 175.129 m 309.102 172.691 326 170 326 170 c 326 170 402.48 169.57
 454.602 169.27 c S Q
454.66 165.77 m 464.672 169.211 l 454.699 172.77 l h
454.66 165.77 m f
q 1 0 0 1 0 0 cm
454.66 165.77 m 464.672 169.211 l 454.699 172.77 l h
454.66 165.77 m S Q
q 1 0 0 1 0 0 cm
293.539 179 m 300.16 179 307.699 179 315.539 179 c S Q
315.602 175.5 m 325.602 179 l 315.602 182.5 l h
315.602 175.5 m f
q 1 0 0 1 0 0 cm
315.602 175.5 m 325.602 179 l 315.602 182.5 l h
315.602 175.5 m S Q
q 1 0 0 1 0 0 cm
541.051 176.82 m 544.98 177.648 549.02 178.5 553.07 179.359 c S Q
554.02 175.98 m 563.078 181.469 l 552.57 182.828 l h
554.02 175.98 m f
q 1 0 0 1 0 0 cm
554.02 175.98 m 563.078 181.469 l 552.57 182.828 l h
554.02 175.98 m S Q
q 1 0 0 1 0 0 cm
410.949 170.398 m 427.699 164.262 450.461 155.91 469.031 149.09 c S Q
467.988 145.75 m 478.578 145.59 l 470.398 152.32 l h
467.988 145.75 m f
q 1 0 0 1 0 0 cm
467.988 145.75 m 478.578 145.59 l 470.398 152.32 l h
467.988 145.75 m S Q
q 1 0 0 1 0 0 cm
416.52 187.602 m 434.809 193.02 455 199 455 199 c 455 199 650 199 650 199
 c 650 199 654.398 196.578 660.051 193.469 c S Q
658.422 190.371 m 668.871 188.609 l 661.789 196.5 l h
658.422 190.371 m f
q 1 0 0 1 0 0 cm
658.422 190.371 m 668.871 188.609 l 661.789 196.5 l h
658.422 190.371 m S Q
q 1 0 0 1 0 0 cm
434.07 202.461 m 442.699 200.879 451.66 199.23 460.141 197.68 c S Q
459.711 194.199 m 470.18 195.84 l 460.98 201.078 l h
459.711 194.199 m f
q 1 0 0 1 0 0 cm
459.711 194.199 m 470.18 195.84 l 460.98 201.078 l h
459.711 194.199 m S Q
q 1 0 0 1 0 0 cm
535.762 190 m 539.91 190 544.27 190 548.672 190 c S Q
548.988 186.5 m 558.988 190 l 548.988 193.5 l h
548.988 186.5 m f
q 1 0 0 1 0 0 cm
548.988 186.5 m 558.988 190 l 548.988 193.5 l h
548.988 186.5 m S Q
q 1 0 0 1 0 0 cm
529.109 213.93 m 540.648 210.211 554.551 205.738 567.199 201.672 c S Q
566.422 198.25 m 577.012 198.52 l 568.559 204.91 l h
566.422 198.25 m f
q 1 0 0 1 0 0 cm
566.422 198.25 m 577.012 198.52 l 568.559 204.91 l h
566.422 198.25 m S Q
q 1 0 0 1 0 0 cm
534.828 234.469 m 543.68 232.02 551 230 551 230 c 551 230 568.941 216.328
 583.84 204.98 c S Q
582.031 201.961 m 592.109 198.68 l 586.281 207.52 l h
582.031 201.961 m f
q 1 0 0 1 0 0 cm
582.031 201.961 m 592.109 198.68 l 586.281 207.52 l h
582.031 201.961 m S Q
q 1 0 0 1 0 0 cm
685.5 167.52 m 685.5 167.66 685.5 167.809 685.5 167.961 c S Q
689 161.379 m 685.5 171.379 l 682 161.379 l h
689 161.379 m f
q 1 0 0 1 0 0 cm
689 161.379 m 685.5 171.379 l 682 161.379 l h
689 161.379 m S Q
q 1 0 0 1 0 0 cm
284.191 132.75 m 301.98 132.441 332.398 131.922 355.27 131.52 c S Q
355.43 128.02 m 365.488 131.34 l 355.551 135.02 l h
355.43 128.02 m f
q 1 0 0 1 0 0 cm
355.43 128.02 m 365.488 131.34 l 355.551 135.02 l h
355.43 128.02 m S Q
q 1 0 0 1 0 0 cm
407.711 129.059 m 425.309 127.371 451.102 124.891 471.27 122.949 c S Q
470.93 119.469 m 481.219 122 l 471.602 126.441 l h
470.93 119.469 m f
q 1 0 0 1 0 0 cm
470.93 119.469 m 481.219 122 l 471.602 126.441 l h
470.93 119.469 m S Q
q 1 0 0 1 0 0 cm
524.621 120 m 540.68 120 563 120 579.801 120 c S Q
579.922 116.5 m 589.922 120 l 579.922 123.5 l h
579.922 116.5 m f
q 1 0 0 1 0 0 cm
579.922 116.5 m 589.922 120 l 579.922 123.5 l h
579.922 116.5 m S Q
Q Q
showpage
%%Trailer
end
%%EOF
