<?xml version="1.0" encoding="UTF-8" standalone="no"?>
<!DOCTYPE svg PUBLIC "-//W3C//DTD SVG 1.1//EN"
 "http://www.w3.org/Graphics/SVG/1.1/DTD/svg11.dtd">
<!-- Generated by graphviz version 2.47.3 (0)
 -->
<!-- Title: G Pages: 1 -->
<svg width="983pt" height="322pt"
 viewBox="0.00 0.00 983.00 321.50" xmlns="http://www.w3.org/2000/svg" xmlns:xlink="http://www.w3.org/1999/xlink">
<g id="graph0" class="graph" transform="scale(1 1) rotate(0) translate(18 303.5)">
<title>G</title>
<polygon fill="white" stroke="transparent" points="-18,18 -18,-303.5 965,-303.5 965,18 -18,18"/>
<!-- age -->
<g id="node1" class="node">
<title>age</title>
<text text-anchor="middle" x="12.5" y="-17.1" font-family="Times,serif" font-size="8.00">年齢</text>
<text text-anchor="middle" x="12.5" y="-8.1" font-family="Times,serif" font-size="8.00">西暦</text>
</g>
<!-- age0 -->
<g id="node5" class="node">
<title>age0</title>
<text text-anchor="middle" x="86.5" y="-17.1" font-family="Times,serif" font-size="8.00">0</text>
<text text-anchor="middle" x="86.5" y="-8.1" font-family="Times,serif" font-size="8.00">2000</text>
</g>
<!-- age&#45;&gt;age0 -->
<!-- enviroment -->
<g id="node2" class="node">
<title>enviroment</title>
<text text-anchor="middle" x="12.5" y="-30.6" font-family="Times,serif" font-size="8.00">住環境</text>
</g>
<!-- 実家0 -->
<g id="node60" class="node">
<title>実家0</title>
<text text-anchor="middle" x="86.5" y="-30.6" font-family="Times,serif" font-size="8.00">実家0</text>
</g>
<!-- enviroment&#45;&gt;実家0 -->
<!-- working -->
<g id="node3" class="node">
<title>working</title>
<text text-anchor="middle" x="12.5" y="-273.6" font-family="Times,serif" font-size="8.00">活動</text>
</g>
<!-- プロコン1 -->
<g id="node37" class="node">
<title>プロコン1</title>
<polygon fill="none" stroke="black" points="512.5,-175 457.5,-175 457.5,-158 512.5,-158 512.5,-175"/>
<text text-anchor="middle" x="485" y="-164.6" font-family="Times,serif" font-size="8.00">プロコン1</text>
</g>
<!-- working&#45;&gt;プロコン1 -->
<!-- プロコン2 -->
<g id="node38" class="node">
<title>プロコン2</title>
<polygon fill="none" stroke="black" points="695,-132 640,-132 640,-115 695,-115 695,-132"/>
<text text-anchor="middle" x="667.5" y="-121.6" font-family="Times,serif" font-size="8.00">プロコン2</text>
</g>
<!-- working&#45;&gt;プロコン2 -->
<!-- ロボカップジュニア -->
<g id="node39" class="node">
<title>ロボカップジュニア</title>
<polygon fill="none" stroke="black" points="632,-122 541,-122 541,-105 632,-105 632,-122"/>
<text text-anchor="middle" x="586.5" y="-111.6" font-family="Times,serif" font-size="8.00">ロボカップジュニア</text>
</g>
<!-- working&#45;&gt;ロボカップジュニア -->
<!-- research -->
<g id="node4" class="node">
<title>research</title>
<text text-anchor="middle" x="12.5" y="-121.6" font-family="Times,serif" font-size="8.00">研究</text>
</g>
<!-- ハッカーになりたかった -->
<g id="node40" class="node">
<title>ハッカーになりたかった</title>
<polygon fill="none" stroke="black" points="140,-258 33,-258 33,-241 140,-241 140,-258"/>
<text text-anchor="middle" x="86.5" y="-247.6" font-family="Times,serif" font-size="8.00">ハッカーになりたかった</text>
</g>
<!-- research&#45;&gt;ハッカーになりたかった -->
<!-- Lisp -->
<g id="node41" class="node">
<title>Lisp</title>
<polygon fill="none" stroke="black" points="187,-258 154,-258 154,-241 187,-241 187,-258"/>
<text text-anchor="middle" x="170.5" y="-247.6" font-family="Times,serif" font-size="8.00">Lisp</text>
</g>
<!-- research&#45;&gt;Lisp -->
<!-- Haskell -->
<g id="node42" class="node">
<title>Haskell</title>
<polygon fill="none" stroke="black" points="193,-237 148,-237 148,-220 193,-220 193,-237"/>
<text text-anchor="middle" x="170.5" y="-226.6" font-family="Times,serif" font-size="8.00">Haskell</text>
</g>
<!-- research&#45;&gt;Haskell -->
<!-- C -->
<g id="node43" class="node">
<title>C</title>
<polygon fill="none" stroke="black" points="182,-216 159,-216 159,-199 182,-199 182,-216"/>
<text text-anchor="middle" x="170.5" y="-205.6" font-family="Times,serif" font-size="8.00">C</text>
</g>
<!-- research&#45;&gt;C -->
<!-- Java -->
<g id="node44" class="node">
<title>Java</title>
<polygon fill="none" stroke="black" points="187,-195 154,-195 154,-178 187,-178 187,-195"/>
<text text-anchor="middle" x="170.5" y="-184.6" font-family="Times,serif" font-size="8.00">Java</text>
</g>
<!-- research&#45;&gt;Java -->
<!-- Python -->
<g id="node45" class="node">
<title>Python</title>
<polygon fill="none" stroke="black" points="192.5,-174 148.5,-174 148.5,-157 192.5,-157 192.5,-174"/>
<text text-anchor="middle" x="170.5" y="-163.6" font-family="Times,serif" font-size="8.00">Python</text>
</g>
<!-- research&#45;&gt;Python -->
<!-- Linux -->
<g id="node46" class="node">
<title>Linux</title>
<polygon fill="none" stroke="black" points="190,-153 151,-153 151,-136 190,-136 190,-153"/>
<text text-anchor="middle" x="170.5" y="-142.6" font-family="Times,serif" font-size="8.00">Linux</text>
</g>
<!-- research&#45;&gt;Linux -->
<!-- 関数型プログラミング -->
<g id="node47" class="node">
<title>関数型プログラミング</title>
<polygon fill="none" stroke="black" points="300,-159 201,-159 201,-142 300,-142 300,-159"/>
<text text-anchor="middle" x="250.5" y="-148.6" font-family="Times,serif" font-size="8.00">関数型プログラミング</text>
</g>
<!-- research&#45;&gt;関数型プログラミング -->
<!-- 人工知能 -->
<g id="node48" class="node">
<title>人工知能</title>
<polygon fill="none" stroke="black" points="275.5,-133 225.5,-133 225.5,-116 275.5,-116 275.5,-133"/>
<text text-anchor="middle" x="250.5" y="-122.6" font-family="Times,serif" font-size="8.00">人工知能</text>
</g>
<!-- research&#45;&gt;人工知能 -->
<!-- Deep Learning -->
<g id="node49" class="node">
<title>Deep Learning</title>
<polygon fill="none" stroke="black" points="523,-143 447,-143 447,-126 523,-126 523,-143"/>
<text text-anchor="middle" x="485" y="-132.6" font-family="Times,serif" font-size="8.00">Deep Learning</text>
</g>
<!-- research&#45;&gt;Deep Learning -->
<!-- ゲームAI, 探索アルゴリズム -->
<g id="node50" class="node">
<title>ゲームAI, 探索アルゴリズム</title>
<polygon fill="none" stroke="black" points="429,-133 308,-133 308,-116 429,-116 429,-133"/>
<text text-anchor="middle" x="368.5" y="-122.6" font-family="Times,serif" font-size="8.00">ゲームAI, 探索アルゴリズム</text>
</g>
<!-- research&#45;&gt;ゲームAI, 探索アルゴリズム -->
<!-- 組み込みプログラミング -->
<g id="node51" class="node">
<title>組み込みプログラミング</title>
<polygon fill="none" stroke="black" points="422,-101 315,-101 315,-84 422,-84 422,-101"/>
<text text-anchor="middle" x="368.5" y="-90.6" font-family="Times,serif" font-size="8.00">組み込みプログラミング</text>
</g>
<!-- research&#45;&gt;組み込みプログラミング -->
<!-- RaspberryPi -->
<g id="node52" class="node">
<title>RaspberryPi</title>
<polygon fill="none" stroke="black" points="517.5,-122 452.5,-122 452.5,-105 517.5,-105 517.5,-122"/>
<text text-anchor="middle" x="485" y="-111.6" font-family="Times,serif" font-size="8.00">RaspberryPi</text>
</g>
<!-- research&#45;&gt;RaspberryPi -->
<!-- 群知能(?) -->
<g id="node53" class="node">
<title>群知能(?)</title>
<polygon fill="none" stroke="black" points="511,-90 459,-90 459,-73 511,-73 511,-90"/>
<text text-anchor="middle" x="485" y="-79.6" font-family="Times,serif" font-size="8.00">群知能(?)</text>
</g>
<!-- research&#45;&gt;群知能(?) -->
<!-- TCP/IP ソケット通信 -->
<g id="node54" class="node">
<title>TCP/IP ソケット通信</title>
<polygon fill="none" stroke="black" points="533,-69 437,-69 437,-52 533,-52 533,-69"/>
<text text-anchor="middle" x="485" y="-58.6" font-family="Times,serif" font-size="8.00">TCP/IP ソケット通信</text>
</g>
<!-- research&#45;&gt;TCP/IP ソケット通信 -->
<!-- 非決定性 -->
<g id="node55" class="node">
<title>非決定性</title>
<polygon fill="none" stroke="black" points="692.5,-153 642.5,-153 642.5,-136 692.5,-136 692.5,-153"/>
<text text-anchor="middle" x="667.5" y="-142.6" font-family="Times,serif" font-size="8.00">非決定性</text>
</g>
<!-- research&#45;&gt;非決定性 -->
<!-- 0 -->
<g id="node20" class="node">
<title>0</title>
<polygon fill="none" stroke="black" points="87,-1 86,-1 86,0 87,0 87,-1"/>
</g>
<!-- age0&#45;&gt;0 -->
<!-- age13 -->
<g id="node6" class="node">
<title>age13</title>
<text text-anchor="middle" x="170.5" y="-7.6" font-family="Times,serif" font-size="8.00">13歳頃</text>
</g>
<!-- 13 -->
<g id="node21" class="node">
<title>13</title>
<polygon fill="none" stroke="black" points="171,-1 170,-1 170,0 171,0 171,-1"/>
</g>
<!-- age13&#45;&gt;13 -->
<!-- age14 -->
<g id="node7" class="node">
<title>age14</title>
<text text-anchor="middle" x="250.5" y="-7.6" font-family="Times,serif" font-size="8.00">14歳頃</text>
</g>
<!-- 14 -->
<g id="node22" class="node">
<title>14</title>
<polygon fill="none" stroke="black" points="251,-1 250,-1 250,0 251,0 251,-1"/>
</g>
<!-- age14&#45;&gt;14 -->
<!-- age15 -->
<g id="node8" class="node">
<title>age15</title>
<text text-anchor="middle" x="368.5" y="-17.1" font-family="Times,serif" font-size="8.00">15</text>
<text text-anchor="middle" x="368.5" y="-8.1" font-family="Times,serif" font-size="8.00">2015</text>
</g>
<!-- 15 -->
<g id="node23" class="node">
<title>15</title>
<polygon fill="none" stroke="black" points="369,-1 368,-1 368,0 369,0 369,-1"/>
</g>
<!-- age15&#45;&gt;15 -->
<!-- age16 -->
<g id="node9" class="node">
<title>age16</title>
<text text-anchor="middle" x="485" y="-7.6" font-family="Times,serif" font-size="8.00">16歳前半</text>
</g>
<!-- 16 -->
<g id="node24" class="node">
<title>16</title>
<polygon fill="none" stroke="black" points="485.5,-1 484.5,-1 484.5,0 485.5,0 485.5,-1"/>
</g>
<!-- age16&#45;&gt;16 -->
<!-- age16p5 -->
<g id="node10" class="node">
<title>age16p5</title>
<text text-anchor="middle" x="586.5" y="-7.6" font-family="Times,serif" font-size="8.00">16歳後半</text>
</g>
<!-- 16_5 -->
<g id="node25" class="node">
<title>16_5</title>
<polygon fill="none" stroke="black" points="587,-1 586,-1 586,0 587,0 587,-1"/>
</g>
<!-- age16p5&#45;&gt;16_5 -->
<!-- age17 -->
<g id="node11" class="node">
<title>age17</title>
<text text-anchor="middle" x="667.5" y="-7.6" font-family="Times,serif" font-size="8.00">17歳</text>
</g>
<!-- 17 -->
<g id="node26" class="node">
<title>17</title>
<polygon fill="none" stroke="black" points="668,-1 667,-1 667,0 668,0 668,-1"/>
</g>
<!-- age17&#45;&gt;17 -->
<!-- age18 -->
<g id="node12" class="node">
<title>age18</title>
<text text-anchor="middle" x="714" y="-17.1" font-family="Times,serif" font-size="8.00">18</text>
<text text-anchor="middle" x="714" y="-8.1" font-family="Times,serif" font-size="8.00">2018</text>
</g>
<!-- 18 -->
<g id="node27" class="node">
<title>18</title>
<polygon fill="none" stroke="black" points="714.5,-1 713.5,-1 713.5,0 714.5,0 714.5,-1"/>
</g>
<!-- age18&#45;&gt;18 -->
<!-- age21 -->
<g id="node13" class="node">
<title>age21</title>
<text text-anchor="middle" x="744" y="-17.1" font-family="Times,serif" font-size="8.00">21</text>
<text text-anchor="middle" x="744" y="-8.1" font-family="Times,serif" font-size="8.00">2021</text>
</g>
<!-- 21 -->
<g id="node28" class="node">
<title>21</title>
<polygon fill="none" stroke="black" points="744.5,-1 743.5,-1 743.5,0 744.5,0 744.5,-1"/>
</g>
<!-- age21&#45;&gt;21 -->
<!-- age22 -->
<g id="node14" class="node">
<title>age22</title>
<text text-anchor="middle" x="774" y="-17.1" font-family="Times,serif" font-size="8.00">22</text>
<text text-anchor="middle" x="774" y="-8.1" font-family="Times,serif" font-size="8.00">2022</text>
</g>
<!-- 22 -->
<g id="node29" class="node">
<title>22</title>
<polygon fill="none" stroke="black" points="774.5,-1 773.5,-1 773.5,0 774.5,0 774.5,-1"/>
</g>
<!-- age22&#45;&gt;22 -->
<!-- age23 -->
<g id="node15" class="node">
<title>age23</title>
<text text-anchor="middle" x="804" y="-17.1" font-family="Times,serif" font-size="8.00">23</text>
<text text-anchor="middle" x="804" y="-8.1" font-family="Times,serif" font-size="8.00">2023</text>
</g>
<!-- 23 -->
<g id="node30" class="node">
<title>23</title>
<polygon fill="none" stroke="black" points="804.5,-1 803.5,-1 803.5,0 804.5,0 804.5,-1"/>
</g>
<!-- age23&#45;&gt;23 -->
<!-- age25 -->
<g id="node16" class="node">
<title>age25</title>
<text text-anchor="middle" x="835.5" y="-17.1" font-family="Times,serif" font-size="8.00">25</text>
<text text-anchor="middle" x="835.5" y="-8.1" font-family="Times,serif" font-size="8.00">2025</text>
</g>
<!-- 25 -->
<g id="node31" class="node">
<title>25</title>
<polygon fill="none" stroke="black" points="836,-1 835,-1 835,0 836,0 836,-1"/>
</g>
<!-- age25&#45;&gt;25 -->
<!-- age30 -->
<g id="node17" class="node">
<title>age30</title>
<text text-anchor="middle" x="867" y="-17.1" font-family="Times,serif" font-size="8.00">30</text>
<text text-anchor="middle" x="867" y="-8.1" font-family="Times,serif" font-size="8.00">2030</text>
</g>
<!-- 30 -->
<g id="node32" class="node">
<title>30</title>
<polygon fill="none" stroke="black" points="867.5,-1 866.5,-1 866.5,0 867.5,0 867.5,-1"/>
</g>
<!-- age30&#45;&gt;30 -->
<!-- age39 -->
<g id="node18" class="node">
<title>age39</title>
<text text-anchor="middle" x="897" y="-17.1" font-family="Times,serif" font-size="8.00">39</text>
<text text-anchor="middle" x="897" y="-8.1" font-family="Times,serif" font-size="8.00">2039</text>
</g>
<!-- 39 -->
<g id="node33" class="node">
<title>39</title>
<polygon fill="none" stroke="black" points="897.5,-1 896.5,-1 896.5,0 897.5,0 897.5,-1"/>
</g>
<!-- age39&#45;&gt;39 -->
<!-- age45 -->
<g id="node19" class="node">
<title>age45</title>
<text text-anchor="middle" x="927" y="-17.1" font-family="Times,serif" font-size="8.00">45</text>
<text text-anchor="middle" x="927" y="-8.1" font-family="Times,serif" font-size="8.00">2045</text>
</g>
<!-- 45 -->
<g id="node34" class="node">
<title>45</title>
<polygon fill="none" stroke="black" points="927.5,-1 926.5,-1 926.5,0 927.5,0 927.5,-1"/>
</g>
<!-- age45&#45;&gt;45 -->
<!-- 0&#45;&gt;13 -->
<g id="edge2" class="edge">
<title>0&#45;&gt;13</title>
<path fill="none" stroke="black" d="M87.56,-0.5C90,-0.5 167.04,-0.5 169.44,-0.5"/>
</g>
<!-- before_born -->
<g id="node35" class="node">
<title>before_born</title>
<polygon fill="none" stroke="black" points="13,-1 12,-1 12,0 13,0 13,-1"/>
</g>
<!-- 0&#45;&gt;before_born -->
<g id="edge16" class="edge">
<title>0&#45;&gt;before_born</title>
<path fill="none" stroke="black" d="M85.45,-0.5C83.82,-0.5 42.98,-0.5 23.57,-0.5"/>
<polygon fill="black" stroke="black" points="23.55,-0.5 23.55,3 13.55,-0.5 23.55,-0.5"/>
</g>
<!-- 13&#45;&gt;14 -->
<g id="edge3" class="edge">
<title>13&#45;&gt;14</title>
<path fill="none" stroke="black" d="M171.56,-0.5C173.88,-0.5 247.16,-0.5 249.45,-0.5"/>
</g>
<!-- 14&#45;&gt;15 -->
<g id="edge4" class="edge">
<title>14&#45;&gt;15</title>
<path fill="none" stroke="black" d="M251.58,-0.5C255.04,-0.5 364.01,-0.5 367.42,-0.5"/>
</g>
<!-- 15&#45;&gt;16 -->
<g id="edge5" class="edge">
<title>15&#45;&gt;16</title>
<path fill="none" stroke="black" d="M369.58,-0.5C373,-0.5 480.56,-0.5 483.92,-0.5"/>
</g>
<!-- 16&#45;&gt;16_5 -->
<g id="edge6" class="edge">
<title>16&#45;&gt;16_5</title>
<path fill="none" stroke="black" d="M486.07,-0.5C489.04,-0.5 582.51,-0.5 585.43,-0.5"/>
</g>
<!-- 16_5&#45;&gt;17 -->
<g id="edge7" class="edge">
<title>16_5&#45;&gt;17</title>
<path fill="none" stroke="black" d="M587.56,-0.5C589.91,-0.5 664.13,-0.5 666.44,-0.5"/>
</g>
<!-- 17&#45;&gt;18 -->
<g id="edge8" class="edge">
<title>17&#45;&gt;18</title>
<path fill="none" stroke="black" d="M668.63,-0.5C671.16,-0.5 710.43,-0.5 712.88,-0.5"/>
</g>
<!-- 18&#45;&gt;21 -->
<g id="edge9" class="edge">
<title>18&#45;&gt;21</title>
<path fill="none" stroke="black" d="M715.08,-0.5C716.67,-0.5 741.38,-0.5 742.92,-0.5"/>
</g>
<!-- 21&#45;&gt;22 -->
<g id="edge10" class="edge">
<title>21&#45;&gt;22</title>
<path fill="none" stroke="black" d="M745.08,-0.5C746.67,-0.5 771.38,-0.5 772.92,-0.5"/>
</g>
<!-- 22&#45;&gt;23 -->
<g id="edge11" class="edge">
<title>22&#45;&gt;23</title>
<path fill="none" stroke="black" d="M775.08,-0.5C776.67,-0.5 801.38,-0.5 802.92,-0.5"/>
</g>
<!-- 23&#45;&gt;25 -->
<g id="edge12" class="edge">
<title>23&#45;&gt;25</title>
<path fill="none" stroke="black" d="M805.08,-0.5C806.76,-0.5 832.8,-0.5 834.42,-0.5"/>
</g>
<!-- 25&#45;&gt;30 -->
<g id="edge13" class="edge">
<title>25&#45;&gt;30</title>
<path fill="none" stroke="black" d="M836.58,-0.5C838.26,-0.5 864.3,-0.5 865.92,-0.5"/>
</g>
<!-- 30&#45;&gt;39 -->
<g id="edge14" class="edge">
<title>30&#45;&gt;39</title>
<path fill="none" stroke="black" d="M868.08,-0.5C869.67,-0.5 894.38,-0.5 895.92,-0.5"/>
</g>
<!-- 39&#45;&gt;45 -->
<g id="edge15" class="edge">
<title>39&#45;&gt;45</title>
<path fill="none" stroke="black" d="M898.08,-0.5C899.67,-0.5 924.38,-0.5 925.92,-0.5"/>
</g>
<!-- future -->
<g id="node36" class="node">
<title>future</title>
<polygon fill="none" stroke="black" points="947,-1 946,-1 946,0 947,0 947,-1"/>
</g>
<!-- 45&#45;&gt;future -->
<g id="edge17" class="edge">
<title>45&#45;&gt;future</title>
<path fill="none" stroke="black" d="M928.05,-0.5C928.52,-0.5 932.03,-0.5 935.83,-0.5"/>
<polygon fill="black" stroke="black" points="935.95,-0.5 935.95,-4 945.95,-0.5 935.95,-0.5"/>
</g>
<!-- Linux&#45;&gt;RaspberryPi -->
<g id="edge54" class="edge">
<title>Linux&#45;&gt;RaspberryPi</title>
<path fill="none" stroke="black" d="M185.72,-153.1C189.72,-155.52 193,-157.5 193,-157.5 193,-157.5 201,-177.5 201,-177.5 201,-177.5 429,-177.5 429,-177.5 429,-177.5 437,-126.5 437,-126.5 437,-126.5 439.58,-125.79 443.53,-124.69"/>
<polygon fill="black" stroke="black" points="444.47,-128.07 453.17,-122.03 442.6,-121.32 444.47,-128.07"/>
</g>
<!-- Ubuntu -->
<g id="node56" class="node">
<title>Ubuntu</title>
<text text-anchor="middle" x="250.5" y="-168.6" font-family="Times,serif" font-size="8.00">Ubuntu</text>
</g>
<!-- Linux&#45;&gt;Ubuntu -->
<g id="edge65" class="edge">
<title>Linux&#45;&gt;Ubuntu</title>
<path fill="none" stroke="black" d="M186.6,-153.2C193.85,-157.38 201,-161.5 201,-161.5 201,-161.5 213,-163.73 225.06,-165.97"/>
<polygon fill="black" stroke="black" points="224.48,-169.42 234.95,-167.8 225.75,-162.53 224.48,-169.42"/>
</g>
<!-- 関数型プログラミング&#45;&gt;プロコン1 -->
<g id="edge60" class="edge">
<title>関数型プログラミング&#45;&gt;プロコン1</title>
<path fill="none" stroke="black" d="M300.24,-153.85C344.12,-156.87 407.64,-161.25 447.34,-163.98"/>
<polygon fill="black" stroke="black" points="447.17,-167.47 457.39,-164.67 447.65,-160.49 447.17,-167.47"/>
</g>
<!-- 関数型プログラミング&#45;&gt;プロコン2 -->
<g id="edge61" class="edge">
<title>関数型プログラミング&#45;&gt;プロコン2</title>
<path fill="none" stroke="black" d="M300.21,-149.29C380.78,-147.29 533,-143.5 533,-143.5 533,-143.5 590.17,-134.93 629.69,-129.01"/>
<polygon fill="black" stroke="black" points="630.43,-132.44 639.81,-127.5 629.4,-125.52 630.43,-132.44"/>
</g>
<!-- 人工知能&#45;&gt;Deep Learning -->
<g id="edge52" class="edge">
<title>人工知能&#45;&gt;Deep Learning</title>
<path fill="none" stroke="black" d="M275.79,-128.37C291.1,-130.81 308,-133.5 308,-133.5 308,-133.5 384.48,-133.93 436.6,-134.23"/>
<polygon fill="black" stroke="black" points="436.66,-137.73 446.67,-134.29 436.7,-130.73 436.66,-137.73"/>
</g>
<!-- 人工知能&#45;&gt;ゲームAI, 探索アルゴリズム -->
<g id="edge53" class="edge">
<title>人工知能&#45;&gt;ゲームAI, 探索アルゴリズム</title>
<path fill="none" stroke="black" d="M275.54,-124.5C282.16,-124.5 289.7,-124.5 297.54,-124.5"/>
<polygon fill="black" stroke="black" points="297.6,-128 307.6,-124.5 297.6,-121 297.6,-128"/>
</g>
<!-- Deep Learning&#45;&gt;ロボカップジュニア -->
<g id="edge56" class="edge">
<title>Deep Learning&#45;&gt;ロボカップジュニア</title>
<path fill="none" stroke="black" d="M523.05,-126.68C526.98,-125.85 531.02,-125 535.07,-124.14"/>
<polygon fill="black" stroke="black" points="536.02,-127.52 545.08,-122.03 534.57,-120.67 536.02,-127.52"/>
</g>
<!-- ゲームAI, 探索アルゴリズム&#45;&gt;プロコン1 -->
<g id="edge62" class="edge">
<title>ゲームAI, 探索アルゴリズム&#45;&gt;プロコン1</title>
<path fill="none" stroke="black" d="M392.95,-133.1C409.7,-139.24 432.46,-147.59 451.03,-154.41"/>
<polygon fill="black" stroke="black" points="449.99,-157.75 460.58,-157.91 452.4,-151.18 449.99,-157.75"/>
</g>
<!-- ゲームAI, 探索アルゴリズム&#45;&gt;プロコン2 -->
<g id="edge63" class="edge">
<title>ゲームAI, 探索アルゴリズム&#45;&gt;プロコン2</title>
<path fill="none" stroke="black" d="M398.52,-115.9C416.81,-110.48 437,-104.5 437,-104.5 437,-104.5 632,-104.5 632,-104.5 632,-104.5 636.4,-106.92 642.05,-110.03"/>
<polygon fill="black" stroke="black" points="640.42,-113.13 650.87,-114.89 643.79,-107 640.42,-113.13"/>
</g>
<!-- 組み込みプログラミング&#45;&gt;RaspberryPi -->
<g id="edge55" class="edge">
<title>組み込みプログラミング&#45;&gt;RaspberryPi</title>
<path fill="none" stroke="black" d="M416.07,-101.04C424.7,-102.62 433.66,-104.27 442.14,-105.82"/>
<polygon fill="black" stroke="black" points="441.71,-109.3 452.18,-107.66 442.98,-102.42 441.71,-109.3"/>
</g>
<!-- RaspberryPi&#45;&gt;ロボカップジュニア -->
<g id="edge59" class="edge">
<title>RaspberryPi&#45;&gt;ロボカップジュニア</title>
<path fill="none" stroke="black" d="M517.76,-113.5C521.91,-113.5 526.27,-113.5 530.67,-113.5"/>
<polygon fill="black" stroke="black" points="530.99,-117 540.99,-113.5 530.99,-110 530.99,-117"/>
</g>
<!-- 群知能(?)&#45;&gt;ロボカップジュニア -->
<g id="edge57" class="edge">
<title>群知能(?)&#45;&gt;ロボカップジュニア</title>
<path fill="none" stroke="black" d="M511.11,-89.57C522.65,-93.29 536.55,-97.76 549.2,-101.83"/>
<polygon fill="black" stroke="black" points="548.42,-105.25 559.01,-104.98 550.56,-98.59 548.42,-105.25"/>
</g>
<!-- TCP/IP ソケット通信&#45;&gt;ロボカップジュニア -->
<g id="edge58" class="edge">
<title>TCP/IP ソケット通信&#45;&gt;ロボカップジュニア</title>
<path fill="none" stroke="black" d="M516.83,-69.03C525.68,-71.48 533,-73.5 533,-73.5 533,-73.5 550.94,-87.17 565.84,-98.52"/>
<polygon fill="black" stroke="black" points="564.03,-101.54 574.11,-104.82 568.28,-95.98 564.03,-101.54"/>
</g>
<!-- 非決定性&#45;&gt;プロコン2 -->
<g id="edge64" class="edge">
<title>非決定性&#45;&gt;プロコン2</title>
<path fill="none" stroke="black" d="M667.5,-135.98C667.5,-135.84 667.5,-135.69 667.5,-135.54"/>
<polygon fill="black" stroke="black" points="671,-142.12 667.5,-132.12 664,-142.12 671,-142.12"/>
</g>
<!-- LinuxMint -->
<g id="node57" class="node">
<title>LinuxMint</title>
<text text-anchor="middle" x="368.5" y="-170.6" font-family="Times,serif" font-size="8.00">LinuxMint</text>
</g>
<!-- Ubuntu&#45;&gt;LinuxMint -->
<g id="edge66" class="edge">
<title>Ubuntu&#45;&gt;LinuxMint</title>
<path fill="none" stroke="black" d="M266.19,-170.75C283.98,-171.06 314.4,-171.58 337.27,-171.98"/>
<polygon fill="black" stroke="black" points="337.43,-175.48 347.49,-172.16 337.55,-168.48 337.43,-175.48"/>
</g>
<!-- ArchLinux -->
<g id="node58" class="node">
<title>ArchLinux</title>
<text text-anchor="middle" x="485" y="-181.6" font-family="Times,serif" font-size="8.00">ArchLinux</text>
</g>
<!-- LinuxMint&#45;&gt;ArchLinux -->
<g id="edge67" class="edge">
<title>LinuxMint&#45;&gt;ArchLinux</title>
<path fill="none" stroke="black" d="M389.71,-174.44C407.31,-176.13 433.1,-178.61 453.27,-180.55"/>
<polygon fill="black" stroke="black" points="452.93,-184.03 463.22,-181.5 453.6,-177.06 452.93,-184.03"/>
</g>
<!-- Gentoo -->
<g id="node59" class="node">
<title>Gentoo</title>
<text text-anchor="middle" x="586.5" y="-181.6" font-family="Times,serif" font-size="8.00">Gentoo</text>
</g>
<!-- ArchLinux&#45;&gt;Gentoo -->
<g id="edge68" class="edge">
<title>ArchLinux&#45;&gt;Gentoo</title>
<path fill="none" stroke="black" d="M506.62,-183.5C522.68,-183.5 545,-183.5 561.8,-183.5"/>
<polygon fill="black" stroke="black" points="561.92,-187 571.92,-183.5 561.92,-180 561.92,-187"/>
</g>
<!-- 高専 -->
<g id="node61" class="node">
<title>高専</title>
<text text-anchor="middle" x="368.5" y="-30.6" font-family="Times,serif" font-size="8.00">高専</text>
</g>
<!-- 実家0&#45;&gt;高専 -->
<!-- 実家1 -->
<g id="node62" class="node">
<title>実家1</title>
<text text-anchor="middle" x="714" y="-30.6" font-family="Times,serif" font-size="8.00">実家1</text>
</g>
<!-- 高専&#45;&gt;実家1 -->
<!-- 奈良 -->
<g id="node63" class="node">
<title>奈良</title>
<text text-anchor="middle" x="744" y="-30.6" font-family="Times,serif" font-size="8.00">奈良</text>
</g>
<!-- 実家1&#45;&gt;奈良 -->
<!-- 大学院 -->
<g id="node64" class="node">
<title>大学院</title>
<text text-anchor="middle" x="835.5" y="-30.6" font-family="Times,serif" font-size="8.00">大学院</text>
</g>
<!-- 奈良&#45;&gt;大学院 -->
</g>
</svg>
